@startuml
hide circles
skinparam linetype polyline
skinparam monochrome true
title UML - Gestion de chaînes de télévision\n//Félix Poullet-Pagès//
object Société{
  nom : string
}
class Chaine{
  nom : string {key}
  siègeSocial : string {not null}
  plageDiffusion : PlageHoraire
}
class PlageHoraire <<DataType>>{
  debut : time
  fin : time
}
note top: debut < fin

class MoyenDiffusion{
  type : string {key}
}
class AudienceSemaine{
  date : date {local key}
  audience : integer
}

class GrilleSemaine{
  semaineDiffusion : integer [52]
  jourDiffusion : enum {L,M,Me,J,V,S,D}
  heureDiffusion : PlageHoraire
}
note top: (Chaine, Emission, semaineDiffusion, jourDiffusion, heureDiffusion) {key}\nsemaineDiffusion=0 pour les séries et les documentaires\nheureDiffusion ∈ plageDiffusion

class Emission <<Abstract>>{
  nom : sting {key}
  pays : string
  VO : bool
}
note right: VO=0 : version française\nVO=1 : version originale\nsi pays='France', VO=NULL

class Série{
  studio : string
  type : enum {drame,\n\taction, humour}
}
class Documentaire{
  studio : string
  thème : enum {économie,\n\tanimal, politique}
}
class Film{
  studio : string

}
class Journal{
  numéro : integer {key}
}
class Public{
  type : string
}
class Intervenant{
  nom : string
  prénom : string
  nationalité : string
}
note right: (nom, prénom) {key}\nles héritages sont exclusifs

class Acteur
class Invité{
  téléphone : integer [10] {key}
}
class Réalisateur
class Animateur{
  téléphone : integer[10] {key}
}

Société"1" - "*"Chaine : possède >
MoyenDiffusion "1..N" -- "*" Chaine: transmet >
Chaine "*"-"*" Emission
GrilleSemaine .. (Chaine,Emission)
GrilleSemaine *-"1..N" AudienceSemaine

Emission "*"---"1..N" Public: vise >
Emission "*"---"*" Public: aime <
Emission <|--- Série
Emission <|--- Documentaire
Emission <|--- Film
Emission <|--- Journal


Acteur --|> Intervenant
Animateur --|> Intervenant
Invité --|> Intervenant
Réalisateur --|> Intervenant
Directeur --|> Intervenant


Documentaire "*"--"0..1" Animateur : anime <
Journal "*"--"    1" Animateur : anime <
Film "*"--"1" Réalisateur: réalise <
Documentaire "*"--"1" Réalisateur: réalise <
Public "*"--"*" Acteur : aime >
Public "*"---"*" Animateur: aime >
Film "*"---"*" Acteur: joue dans <
Série "*"---"*" Acteur: joue dans <
Journal "*"---"*" Invité : participe <
Chaine "1..N"---"1" Directeur : dirige <

@enduml
